2013-07-01T15:28:22+05:30 NOTICE (5): 				index				Successfully Logged in				202.83.16.226				Success				itwine				
2013-07-02T11:24:44+05:30 NOTICE (5): 				index				Successfully Logged in				127.0.0.1				Success				itwine				
2013-07-02T11:25:24+05:30 NOTICE (5): 				index				Successfully Logged Out				127.0.0.1				Success				itwine				
2013-07-02T12:31:16+05:30 NOTICE (5): 				index				Successfully Logged in				202.83.16.226				Success				itwine				
2013-07-02T13:08:21+05:30 NOTICE (5): 				index				Successfully Logged Out				202.83.16.226				Success				itwine				
2013-07-02T13:08:35+05:30 NOTICE (5): 				index				Successfully Logged in				202.83.16.226				Success				
2013-07-02T16:39:05+05:30 NOTICE (5): 				index				Successfully Logged in				202.83.16.226				Success				itwine				
2013-07-02T16:39:27+05:30 NOTICE (5): 				initialconfiguration				Successfully Updated the InitialConfig				202.83.16.226				Success				itwine				
2013-07-02T16:39:56+05:30 NOTICE (5): 				initialconfiguration				Successfully Updated the InitialConfig				202.83.16.226				Success				itwine				
2013-07-02T16:40:20+05:30 NOTICE (5): 				initialconfiguration				Successfully Updated the InitialConfig				202.83.16.226				Success				itwine				
2013-07-02T17:20:42+05:30 NOTICE (5): 				index				Successfully Logged in				202.83.16.168				Success				itwine				
2013-07-02T17:22:38+05:30 NOTICE (5): 				index				Successfully Logged Out				202.83.16.168				Success				itwine				
2013-07-02T17:34:37+05:30 NOTICE (5): 				index				Successfully Logged in				202.83.16.226				Success				itwine				
2013-07-02T18:27:49+05:30 NOTICE (5): 				index				Successfully Logged in				202.83.16.226				Success				itwine				
2013-07-03T16:39:04+05:30 NOTICE (5): 				index				Successfully Logged in				202.83.16.226				Success				
2013-07-04T11:25:24+05:30 NOTICE (5): 				index				Successfully Logged in				202.83.16.226				Success				itwine				
2013-07-04T12:40:47+05:30 NOTICE (5): 				index				Successfully Logged in				202.83.16.226				Success				
2013-07-04T14:47:27+05:30 NOTICE (5): 				index				Successfully Logged in				202.83.16.226				Success				
2013-07-04T15:15:50+05:30 NOTICE (5): 				batchlogin				Successfully Logged Out				202.83.16.226				Success				
2013-07-04T15:16:07+05:30 NOTICE (5): 				index				Successfully Logged in				202.83.16.226				Success				
2013-07-04T17:00:49+05:30 NOTICE (5): 				batchlogin				Successfully Logged Out				202.83.16.226				Success				
2013-07-04T17:01:04+05:30 NOTICE (5): 				index				Successfully Logged in				202.83.16.226				Success				
2013-07-04T17:02:52+05:30 NOTICE (5): 				index				Successfully Logged in				202.83.16.226				Success				
2013-07-04T17:47:43+05:30 NOTICE (5): 				index				Successfully Logged in				202.83.16.168				Success				
2013-07-04T17:55:18+05:30 NOTICE (5): 				batchlogin				Successfully Logged Out				202.83.16.226				Success				
2013-07-04T17:55:33+05:30 NOTICE (5): 				index				Successfully Logged in				202.83.16.226				Success				
2013-07-05T16:05:53+05:30 NOTICE (5): 				centerlogin				Successfully Logged in				202.83.16.168				Success				
2013-07-05T16:06:41+05:30 NOTICE (5): 				index				Successfully Logged in				202.83.16.226				Success				
2013-07-05T16:27:10+05:30 NOTICE (5): 				index				Successfully Logged in				127.0.0.1				Success				
2013-07-05T16:38:13+05:30 NOTICE (5): 				index				Successfully Logged in				202.83.16.226				Success				itwine				
2013-07-08T15:52:52+05:30 NOTICE (5): 				index				Successfully Logged in				202.83.16.226				Success				itwine				
2013-07-08T16:15:51+05:30 NOTICE (5): 				initialconfiguration				Successfully Updated the InitialConfig				202.83.16.226				Success				itwine				
2013-07-08T16:16:17+05:30 NOTICE (5): 				initialconfiguration				Successfully Updated the InitialConfig				202.83.16.226				Success				itwine				
2013-07-08T16:17:40+05:30 NOTICE (5): 				initialconfiguration				Successfully Updated the InitialConfig				202.83.16.226				Success				itwine				
2013-07-08T16:18:09+05:30 NOTICE (5): 				initialconfiguration				Successfully Updated the InitialConfig				202.83.16.226				Success				itwine				
2013-07-08T16:18:26+05:30 NOTICE (5): 				initialconfiguration				Successfully Updated the InitialConfig				202.83.16.226				Success				itwine				
2013-07-08T16:18:47+05:30 NOTICE (5): 				initialconfiguration				Successfully Updated the InitialConfig				202.83.16.226				Success				itwine				
2013-07-08T16:18:59+05:30 NOTICE (5): 				initialconfiguration				Successfully Updated the InitialConfig				202.83.16.226				Success				itwine				
2013-07-08T16:19:27+05:30 NOTICE (5): 				initialconfiguration				Successfully Updated the InitialConfig				202.83.16.226				Success				itwine				
2013-07-08T16:19:39+05:30 NOTICE (5): 				initialconfiguration				Successfully Updated the InitialConfig				202.83.16.226				Success				itwine				
2013-07-09T09:33:56+05:30 NOTICE (5): 				index				Successfully Logged in				202.83.16.226				Success				itwine				
2013-07-09T11:23:32+05:30 NOTICE (5): 				index				Successfully Logged in				202.83.16.226				Success				itwine				
2013-07-09T11:46:54+05:30 NOTICE (5): 				index				Successfully Logged Out				202.83.16.226				Success				itwine				
2013-07-09T11:48:59+05:30 NOTICE (5): 				index				Successfully Logged in				202.83.16.226				Success				itwine				
2013-07-09T11:51:43+05:30 NOTICE (5): 				initialconfiguration				Successfully Updated the InitialConfig				202.83.16.226				Success				itwine				
2013-07-09T14:52:24+05:30 NOTICE (5): 				index				Successfully Logged in				202.83.16.226				Success				
2013-07-09T14:53:35+05:30 NOTICE (5): 				examcenterapproval				Successfully Approved the Students by Exam Center				202.83.16.226				Success			
2013-07-09T15:00:06+05:30 NOTICE (5): 				index				Successfully Logged in				202.83.16.226				Success				itwine				
2013-07-09T16:20:17+05:30 NOTICE (5): 				index				Successfully Logged in				202.83.16.226				Success				itwine				
2013-07-09T18:39:00+05:30 NOTICE (5): 				index				Successfully Logged in				202.83.16.226				Success				itwine				
2013-07-09T18:43:11+05:30 NOTICE (5): 				index				Successfully Logged in				202.83.16.226				Success				itwine				
2013-07-10T07:22:39+05:30 NOTICE (5): 				centerlogin				Successfully Logged in				203.223.157.30				Success				
2013-07-10T10:42:13+05:30 NOTICE (5): 				index				Successfully Logged in				202.83.16.168				Success				itwine				
2013-07-11T11:14:10+05:30 NOTICE (5): 				index				Successfully Logged in				202.83.16.226				Success				itwine				
2013-07-11T11:34:12+05:30 NOTICE (5): 				index				Successfully Logged in				202.83.16.226				Success				
2013-07-11T11:37:21+05:30 NOTICE (5): 				centerlogin				Successfully Logged in				202.83.16.226				Success				
2013-07-11T11:37:47+05:30 NOTICE (5): 				index				Successfully Logged in				202.83.16.226				Success				itwine				
2013-07-11T12:43:23+05:30 NOTICE (5): 				index				Successfully Logged in				202.83.16.226				Success				itwine				
2013-07-11T13:54:26+05:30 NOTICE (5): 				index				Successfully Logged in				202.83.16.226				Success				itwine				
2013-07-11T14:39:01+05:30 NOTICE (5): 				index				Successfully Logged in				202.83.16.168				Success				itwine				
2013-07-11T14:42:50+05:30 NOTICE (5): 				index				Successfully Logged Out				202.83.16.168				Success				itwine				
2013-07-11T15:04:12+05:30 NOTICE (5): 				index				Successfully Logged in				202.83.16.226				Success				itwine				
2013-07-11T15:18:21+05:30 NOTICE (5): 				index				Successfully Logged in				202.83.16.226				Success				itwine				
2013-07-12T11:36:59+05:30 NOTICE (5): 				index				Successfully Logged in				202.83.16.226				Success				itwine				
2013-07-12T12:50:26+05:30 NOTICE (5): 				index				Successfully Logged in				202.83.16.226				Success				itwine				
2013-07-12T14:08:20+05:30 NOTICE (5): 				index				Successfully Logged in				202.83.16.226				Success				itwine				
2013-07-12T14:48:38+05:30 NOTICE (5): 				index				Successfully Logged in				202.83.16.168				Success				itwine				
2013-07-12T14:54:11+05:30 NOTICE (5): 				index				Successfully Logged Out				202.83.16.168				Success				itwine				
2013-07-12T15:03:08+05:30 NOTICE (5): 				index				Successfully Logged in				202.83.16.226				Success				itwine				
2013-07-12T16:12:00+05:30 NOTICE (5): 				index				Successfully Logged in				202.83.16.226				Success				itwine				
2013-07-12T16:24:57+05:30 NOTICE (5): 				index				Successfully Logged in				202.83.16.226				Success				itwine				
2013-07-15T09:46:32+05:30 NOTICE (5): 				index				Successfully Logged in				202.83.16.226				Success				itwine				
2013-07-15T14:39:50+05:30 NOTICE (5): 				index				Successfully Logged in				202.83.16.226				Success				itwine				
2013-07-15T15:19:26+05:30 NOTICE (5): 				index				Successfully Logged in				202.83.16.168				Success				itwine				
2013-07-15T15:22:32+05:30 NOTICE (5): 				index				Successfully Logged Out				202.83.16.168				Success				itwine				
2013-07-16T15:00:53+05:30 NOTICE (5): 				index				Successfully Logged in				202.83.16.226				Success				itwine				
2013-07-16T15:02:20+05:30 NOTICE (5): 				createquestionpaper				Successfully Printed the Question paper report for Part A and B				202.83.16.226				Success				itwine				
2013-07-16T15:10:40+05:30 NOTICE (5): 				createquestionpaper				Successfully Printed the Question paper report for Part A and B				202.83.16.226				Success				itwine				
2013-07-16T16:14:23+05:30 NOTICE (5): 				index				Successfully Logged in				202.83.16.226				Success				itwine				
2013-07-16T16:21:33+05:30 NOTICE (5): 				index				Successfully Logged in				202.83.16.226				Success				itwine				
2013-07-16T16:28:04+05:30 NOTICE (5): 				index				Successfully Logged in				202.83.16.226				Success				itwine				
2013-07-16T16:28:55+05:30 NOTICE (5): 				index				Successfully Logged in				127.0.0.1				Success				itwine				
2013-07-16T17:13:45+05:30 NOTICE (5): 				index				Successfully Logged in				202.83.16.226				Success				itwine				
2013-07-16T17:15:30+05:30 NOTICE (5): 				index				Successfully Logged in				202.83.16.226				Success				itwine				
2013-07-16T17:18:05+05:30 NOTICE (5): 				createanswerpaper				Successfully Printed the Answer Paper Report for IdApplication =42494				202.83.16.226				Success				itwine				
2013-07-16T17:18:29+05:30 NOTICE (5): 				createanswerpaper				Successfully Printed the Answer Paper Report for IdApplication =42423				202.83.16.226				Success				itwine				
2013-07-16T18:33:47+05:30 NOTICE (5): 				index				Successfully Logged in				202.83.16.226				Success				itwine				
2013-07-16T18:37:03+05:30 NOTICE (5): 				index				Successfully Logged in				202.83.16.226				Success				itwine				
2013-07-17T11:01:23+05:30 NOTICE (5): 				index				Successfully Logged in				202.83.22.139				Success				itwine				
2013-07-18T09:57:46+05:30 NOTICE (5): 				index				Successfully Logged in				202.83.22.139				Success				
2013-07-18T10:52:22+05:30 NOTICE (5): 				index				Successfully Logged in				202.83.22.139				Success				itwine				
2013-07-18T11:33:08+05:30 NOTICE (5): 				index				Successfully Logged in				202.83.22.139				Success				itwine				
2013-07-18T11:46:47+05:30 NOTICE (5): 				index				Successfully Logged in				202.83.22.139				Success				itwine				
2013-07-18T15:01:35+05:30 NOTICE (5): 				index				Successfully Logged in				202.83.16.168				Success				
2013-07-18T16:20:15+05:30 NOTICE (5): 				batchlogin				Successfully Logged Out				202.83.22.139				Success				
2013-07-18T16:20:21+05:30 NOTICE (5): 				batchlogin				Successfully Logged Out				202.83.22.139				Success				
2013-07-19T12:06:26+05:30 NOTICE (5): 				index				Successfully Logged in				202.83.22.139				Success				itwine				
2013-07-19T14:03:57+05:30 NOTICE (5): 				index				Successfully Logged in				202.83.22.139				Success				itwine				
2013-07-22T11:27:45+05:30 NOTICE (5): 				index				Successfully Logged in				202.83.22.139				Success				itwine				
2013-07-22T11:30:24+05:30 NOTICE (5): 				createexam				Successfully Updated the Create Exam with id = 22				202.83.22.139				Success				22				
2013-07-22T11:30:46+05:30 NOTICE (5): 				createexam				Successfully Updated the Create Exam with id = 22				202.83.22.139				Success				22				
2013-07-22T11:43:22+05:30 NOTICE (5): 				companyapplication				Successfully Data is Saved				202.83.22.139				Success				
2013-07-22T11:44:49+05:30 NOTICE (5): 				companyapplication				Successfully Data is Saved				202.83.22.139				Success				
2013-07-22T11:58:42+05:30 NOTICE (5): 				index				Successfully Logged in				202.83.22.139				Success				itwine				
2013-07-22T12:07:49+05:30 NOTICE (5): 				companyapplication				Successfully Data is Saved				202.83.22.139				Success				
2013-07-22T12:08:31+05:30 NOTICE (5): 				companyapplication				Successfully Data is Saved				202.83.22.139				Success				
2013-07-22T12:21:05+05:30 NOTICE (5): 				initialconfiguration				Successfully Updated the InitialConfig				202.83.22.139				Success				itwine				
2013-07-22T12:29:22+05:30 NOTICE (5): 				index				Successfully Logged in				202.83.22.139				Success				
2013-07-22T12:29:46+05:30 NOTICE (5): 				examcenterapproval				Successfully Approved the Students by Exam Center				202.83.22.139				Success			
2013-07-22T12:32:05+05:30 NOTICE (5): 				index				Successfully Logged in				202.83.22.139				Success				
2013-07-22T13:04:39+05:30 NOTICE (5): 				index				Successfully Logged in				202.83.22.139				Success				itwine				
2013-07-22T13:06:18+05:30 NOTICE (5): 				index				Successfully Logged in				202.83.22.139				Success				itwine				
2013-07-22T13:06:55+05:30 NOTICE (5): 				index				Successfully Logged Out				202.83.22.139				Success				itwine				
2013-07-22T13:07:24+05:30 NOTICE (5): 				createanswerpaper				Successfully Printed the Answer Paper Report for IdApplication =45460				202.83.22.139				Success				itwine				
2013-07-22T13:08:30+05:30 NOTICE (5): 				createanswerpaper				Successfully Printed the Answer Paper Report for IdApplication =45460				202.83.22.139				Success				itwine				
2013-07-22T13:55:46+05:30 NOTICE (5): 				index				Successfully Logged in				202.83.22.139				Success				itwine				
2013-07-22T14:33:41+05:30 NOTICE (5): 				index				Successfully Logged in				202.83.22.139				Success				itwine				
2013-07-23T09:35:45+05:30 NOTICE (5): 				index				Successfully Logged in				202.83.22.139				Success				itwine				
2013-07-23T10:57:13+05:30 NOTICE (5): 				index				Successfully Logged in				202.83.22.139				Success				itwine				
2013-07-23T11:08:47+05:30 NOTICE (5): 				index				Successfully Logged in				202.83.22.139				Success				
2013-07-23T11:20:17+05:30 NOTICE (5): 				index				Successfully Logged in				202.83.16.168				Success				itwine				
2013-07-23T11:30:28+05:30 NOTICE (5): 				index				Successfully Logged Out				202.83.16.168				Success				itwine				
2013-07-24T14:37:01+05:30 NOTICE (5): 				index				Successfully Logged in				202.83.22.139				Success				itwine				
2013-07-24T14:43:55+05:30 NOTICE (5): 				index				Successfully Logged in				202.83.22.139				Success				
2013-07-24T14:48:42+05:30 NOTICE (5): 				centerlogin				Successfully Logged in				202.83.22.139				Success				
2013-07-24T15:17:46+05:30 NOTICE (5): 				index				Successfully Logged in				202.83.16.168				Success				itwine				
2013-07-24T15:35:54+05:30 NOTICE (5): 				index				Successfully Logged Out				202.83.16.168				Success				itwine				
2013-07-24T17:09:16+05:30 NOTICE (5): 				index				Successfully Logged in				202.83.22.139				Success				itwine				
2013-07-25T16:20:36+05:30 NOTICE (5): 				index				Successfully Logged in				202.83.22.139				Success				itwine				
2013-07-25T17:21:37+05:30 NOTICE (5): 				index				Successfully Logged in				202.83.16.168				Success				itwine				
2013-07-25T17:36:25+05:30 NOTICE (5): 				index				Successfully Logged Out				202.83.16.168				Success				itwine				
2013-07-29T10:08:09+05:30 NOTICE (5): 				index				Successfully Logged in				202.83.22.139				Success				itwine				
2013-07-29T11:02:08+05:30 NOTICE (5): 				index				Successfully Logged in				202.83.22.139				Success				itwine				
2013-07-29T11:04:25+05:30 NOTICE (5): 				index				Successfully Logged Out				202.83.22.139				Success				itwine				
2013-07-29T11:04:37+05:30 NOTICE (5): 				index				Successfully Logged in				202.83.22.139				Success				
2013-07-29T16:09:54+05:30 NOTICE (5): 				index				Successfully Logged in				202.83.22.139				Success				itwine				
2013-07-29T17:18:21+05:30 NOTICE (5): 				index				Successfully Logged in				202.83.22.139				Success				itwine				
2013-07-30T18:33:44+05:30 NOTICE (5): 				index				Successfully Logged in				202.83.22.139				Success				itwine				
2013-07-30T19:02:11+05:30 NOTICE (5): 				index				Successfully Logged in				202.83.16.168				Success				itwine				
2013-07-30T19:13:48+05:30 NOTICE (5): 				index				Successfully Logged Out				202.83.16.168				Success				itwine				
2013-07-30T19:16:25+05:30 NOTICE (5): 				index				Successfully Logged in				202.83.16.168				Success				itwine				
2013-07-30T19:22:43+05:30 NOTICE (5): 				index				Successfully Logged Out				202.83.16.168				Success				itwine				
2013-07-30T19:44:13+05:30 NOTICE (5): 				index				Successfully Logged in				202.83.22.139				Success				itwine				
2013-07-31T10:08:53+05:30 NOTICE (5): 				index				Successfully Logged in				202.83.22.139				Success				itwine				
2013-07-31T14:39:27+05:30 NOTICE (5): 				index				Successfully Logged in				202.83.22.139				Success				itwine				
2013-07-31T14:41:19+05:30 NOTICE (5): 				index				Successfully Logged in				202.83.22.139				Success				itwine				
2013-07-31T15:24:02+05:30 NOTICE (5): 				index				Successfully Logged in				202.83.22.139				Success				itwine				
2013-07-31T15:54:30+05:30 NOTICE (5): 				index				Successfully Logged in				202.83.22.139				Success				itwine				
2013-07-31T18:16:01+05:30 NOTICE (5): 				index				Successfully Logged in				202.83.22.139				Success				itwine				
