2014-12-17T12:24:05+08:00 NOTICE (5): 				index				Successfully Logged in				202.83.19.104				Success				itwine				
2014-12-17T12:24:18+08:00 NOTICE (5): 				index				Successfully Logged Out				202.83.19.104				Success				itwine				
2014-12-17T12:43:20+08:00 NOTICE (5): 				index				Successfully Logged in				202.83.19.104				Success				itwine				
2014-12-17T12:43:25+08:00 NOTICE (5): 				index				Successfully Logged Out				202.83.19.104				Success				itwine				
2014-12-17T12:54:23+08:00 NOTICE (5): 				batchlogin				Successfully Logged in				202.83.19.104				Success				
2014-12-17T12:54:35+08:00 NOTICE (5): 				index				Successfully Logged in				202.83.19.104				Success				
2014-12-17T12:55:08+08:00 NOTICE (5): 				index				Successfully Logged in				202.83.19.104				Success				itwine				
2014-12-17T12:55:14+08:00 NOTICE (5): 				index				Successfully Logged Out				202.83.19.104				Success				itwine				
2014-12-17T12:55:41+08:00 NOTICE (5): 				index				Successfully Logged in				202.83.19.104				Success				askiran123@gmail.com				
2014-12-17T12:55:47+08:00 NOTICE (5): 				takafullogin				Successfully Logged Out				202.83.19.104				Success				
2014-12-17T12:57:48+08:00 NOTICE (5): 				takafullogin				Successfully Logged in				202.83.19.104				Success				askiran123@gmail.com				
2014-12-17T12:57:51+08:00 NOTICE (5): 				takafullogin				Successfully Logged Out				202.83.19.104				Success				
2014-12-17T12:59:16+08:00 NOTICE (5): 				centerlogin				Successfully Logged in				202.83.19.104				Success				
2014-12-17T12:59:38+08:00 NOTICE (5): 				index				Successfully Logged in				202.83.19.104				Success				
2014-12-17T13:03:34+08:00 NOTICE (5): 				index				Successfully Logged in				202.83.19.104				Success				
2014-12-17T13:24:50+08:00 NOTICE (5): 				takafullogin				Successfully Logged in				202.83.19.104				Success				askiran123@gmail.com				
2014-12-17T13:25:08+08:00 NOTICE (5): 				takafullogin				Successfully Logged Out				202.83.19.104				Success				
2014-12-17T13:25:29+08:00 NOTICE (5): 				index				Successfully Logged in				202.83.19.104				Success				itwine				
2014-12-17T13:28:34+08:00 NOTICE (5): 				index				Successfully Logged Out				202.83.19.104				Success				itwine				
2014-12-17T13:29:47+08:00 NOTICE (5): 				index				Successfully Logged in				202.83.19.104				Success				itwine				
2014-12-17T13:30:09+08:00 NOTICE (5): 				index				Successfully Logged Out				202.83.19.104				Success				itwine				
2014-12-17T13:32:29+08:00 NOTICE (5): 				index				Successfully Logged in				202.83.19.104				Success				itwine				
2014-12-17T13:33:52+08:00 NOTICE (5): 				index				Successfully Logged in				202.83.19.104				Success				
2014-12-17T13:37:11+08:00 NOTICE (5): 				index				Successfully Logged in				202.83.19.104				Success				
2014-12-17T13:41:49+08:00 NOTICE (5): 				index				Successfully Logged in				202.83.19.104				Success				
2014-12-17T13:42:38+08:00 NOTICE (5): 				batchlogin				Successfully Logged Out				202.83.19.104				Success				
2014-12-17T13:43:13+08:00 NOTICE (5): 				batchlogin				Successfully Logged in				202.83.19.104				Success				
2014-12-17T13:43:29+08:00 NOTICE (5): 				batchlogin				Successfully Logged Out				202.83.19.104				Success				
2014-12-17T13:44:36+08:00 NOTICE (5): 				centerlogin				Successfully Logged in				202.83.19.104				Success				
2014-12-17T13:44:45+08:00 NOTICE (5): 				centerlogin				Successfully Logged Out				202.83.19.104				Success				
2014-12-17T13:47:23+08:00 NOTICE (5): 				takafullogin				Successfully Logged in				202.83.19.104				Success				askiran123@gmail.com				
2014-12-17T13:47:40+08:00 NOTICE (5): 				takafullogin				Successfully Logged Out				202.83.19.104				Success				
2014-12-17T13:49:58+08:00 NOTICE (5): 				index				Successfully Logged in				202.83.19.104				Success				askiran123@gmail.com				
2014-12-17T13:51:00+08:00 NOTICE (5): 				takafullogin				Successfully Logged in				202.83.19.104				Success				askiran123@gmail.com				
2014-12-17T13:52:29+08:00 NOTICE (5): 				takafullogin				Successfully Logged Out				202.83.19.104				Success				
2014-12-17T13:52:36+08:00 NOTICE (5): 				takafullogin				Successfully Logged Out				202.83.19.104				Success				
2014-12-17T13:52:54+08:00 NOTICE (5): 				index				Successfully Logged in				202.83.19.104				Success				askiran123@gmail.com				
2014-12-17T13:54:57+08:00 NOTICE (5): 				takafullogin				Successfully Logged Out				202.83.19.104				Success				
2014-12-17T13:55:11+08:00 NOTICE (5): 				index				Successfully Logged in				202.83.19.104				Success				askiran123@gmail.com				
2014-12-17T14:04:46+08:00 NOTICE (5): 				takafullogin				Successfully Logged in				202.83.19.104				Success				askiran123@gmail.com				
2014-12-17T14:04:56+08:00 NOTICE (5): 				takafullogin				Successfully Logged Out				202.83.19.104				Success				
2014-12-17T14:05:22+08:00 NOTICE (5): 				takafullogin				Successfully Logged in				202.83.19.104				Success				askiran123@gmail.com				
2014-12-17T14:05:32+08:00 NOTICE (5): 				takafullogin				Successfully Logged Out				202.83.19.104				Success				
2014-12-17T14:05:44+08:00 NOTICE (5): 				takafullogin				Successfully Logged Out				202.83.19.104				Success				
2014-12-17T14:06:02+08:00 NOTICE (5): 				index				Successfully Logged in				202.83.19.104				Success				askiran123@gmail.com				
2014-12-17T14:07:15+08:00 NOTICE (5): 				takafullogin				Successfully Logged Out				202.83.19.104				Success				
2014-12-17T14:07:50+08:00 NOTICE (5): 				takafullogin				Successfully Logged in				202.83.19.104				Success				askiran123@gmail.com				
2014-12-17T14:10:29+08:00 NOTICE (5): 				takafullogin				Successfully Logged Out				202.83.19.104				Success				
2014-12-17T14:10:54+08:00 NOTICE (5): 				takafullogin				Successfully Logged in				202.83.19.104				Success				askiran123@gmail.com				
2014-12-17T14:11:34+08:00 NOTICE (5): 				takafullogin				Successfully Logged Out				202.83.19.104				Success				
2014-12-17T14:11:52+08:00 NOTICE (5): 				takafullogin				Successfully Logged in				202.83.19.104				Success				askiran123@gmail.com				
2014-12-17T14:12:27+08:00 NOTICE (5): 				takafullogin				Successfully Logged Out				202.83.19.104				Success				
2014-12-17T14:15:06+08:00 NOTICE (5): 				index				Successfully Logged in				202.83.19.104				Success				itwine				
2014-12-17T14:15:43+08:00 NOTICE (5): 				index				Successfully Logged Out				202.83.19.104				Success				itwine				
2014-12-17T14:16:02+08:00 NOTICE (5): 				index				Successfully Logged in				202.83.19.104				Success				itwine				
2014-12-17T14:16:28+08:00 NOTICE (5): 				index				Successfully Logged Out				202.83.19.104				Success				itwine				
2014-12-17T14:16:55+08:00 NOTICE (5): 				index				Successfully Logged in				202.83.19.104				Success				askiran123@gmail.com				
2014-12-17T14:17:08+08:00 NOTICE (5): 				takafullogin				Successfully Logged Out				202.83.19.104				Success				
2014-12-17T14:17:33+08:00 NOTICE (5): 				takafullogin				Successfully Logged in				202.83.19.104				Success				askiran123@gmail.com				
2014-12-17T14:18:19+08:00 NOTICE (5): 				takafullogin				Successfully Logged Out				202.83.19.104				Success				
2014-12-17T14:18:44+08:00 NOTICE (5): 				takafullogin				Successfully Logged in				202.83.19.104				Success				askiran123@gmail.com				
2014-12-17T14:19:31+08:00 NOTICE (5): 				takafullogin				Successfully Logged Out				202.83.19.104				Success				
2014-12-17T14:20:05+08:00 NOTICE (5): 				batchlogin				Successfully Logged in				202.83.19.104				Success				
2014-12-17T14:20:40+08:00 NOTICE (5): 				batchlogin				Successfully Logged Out				202.83.19.104				Success				
2014-12-17T14:21:01+08:00 NOTICE (5): 				batchlogin				Successfully Logged in				202.83.19.104				Success				
2014-12-17T14:21:25+08:00 NOTICE (5): 				batchlogin				Successfully Logged Out				202.83.19.104				Success				
2014-12-17T14:21:37+08:00 NOTICE (5): 				batchlogin				Successfully Logged in				202.83.19.104				Success				
2014-12-17T14:24:24+08:00 NOTICE (5): 				batchlogin				Successfully Logged Out				202.83.19.104				Success				
2014-12-17T14:24:41+08:00 NOTICE (5): 				batchlogin				Successfully Logged in				202.83.19.104				Success				
2014-12-17T14:26:23+08:00 NOTICE (5): 				batchlogin				Successfully Logged Out				202.83.19.104				Success				
2014-12-17T14:26:36+08:00 NOTICE (5): 				batchlogin				Successfully Logged in				202.83.19.104				Success				
2014-12-17T14:26:59+08:00 NOTICE (5): 				batchlogin				Successfully Logged Out				202.83.19.104				Success				
2014-12-17T14:27:20+08:00 NOTICE (5): 				centerlogin				Successfully Logged in				202.83.19.104				Success				
2014-12-17T14:27:55+08:00 NOTICE (5): 				centerlogin				Successfully Logged Out				202.83.19.104				Success				
2014-12-17T14:28:14+08:00 NOTICE (5): 				centerlogin				Successfully Logged in				202.83.19.104				Success				
2014-12-17T14:30:05+08:00 NOTICE (5): 				centerlogin				Successfully Logged Out				202.83.19.104				Success				
2014-12-17T14:30:21+08:00 NOTICE (5): 				centerlogin				Successfully Logged in				202.83.19.104				Success				
2014-12-17T14:31:03+08:00 NOTICE (5): 				index				Successfully Logged in				202.83.19.104				Success				
2014-12-17T14:32:55+08:00 NOTICE (5): 				centerlogin				Successfully Logged Out				202.83.19.104				Success				
2014-12-17T14:33:31+08:00 NOTICE (5): 				centerlogin				Successfully Logged in				202.83.19.104				Success				
2014-12-17T14:33:46+08:00 NOTICE (5): 				centerlogin				Successfully Logged Out				202.83.19.104				Success				
2014-12-17T14:34:07+08:00 NOTICE (5): 				centerlogin				Successfully Logged Out				202.83.19.104				Success				
2014-12-17T14:34:40+08:00 NOTICE (5): 				index				Successfully Logged in				202.83.19.104				Success				itwine				
2014-12-17T14:35:47+08:00 NOTICE (5): 				index				Successfully Logged in				202.83.19.104				Success				itwine				
2014-12-17T14:36:59+08:00 NOTICE (5): 				takafullogin				Successfully Logged in				202.83.19.104				Success				askiran123@gmail.com				
2014-12-17T14:57:45+08:00 NOTICE (5): 				index				Successfully Logged in				202.83.19.104				Success				
2014-12-17T14:58:00+08:00 NOTICE (5): 				batchlogin				Successfully Logged Out				202.83.19.104				Success				
2014-12-17T14:58:14+08:00 NOTICE (5): 				index				Successfully Logged in				202.83.19.104				Success				
2014-12-17T14:58:17+08:00 NOTICE (5): 				batchlogin				Successfully Logged Out				202.83.19.104				Success				
2014-12-17T14:58:38+08:00 NOTICE (5): 				batchlogin				Successfully Logged in				202.83.19.104				Success				
2014-12-17T14:58:45+08:00 NOTICE (5): 				batchlogin				Successfully Logged Out				202.83.19.104				Success				
2014-12-17T14:58:56+08:00 NOTICE (5): 				index				Successfully Logged in				202.83.19.104				Success				itwine				
2014-12-17T15:18:08+08:00 NOTICE (5): 				index				Successfully Logged in				202.83.19.104				Success				itwine				
2014-12-17T15:21:32+08:00 NOTICE (5): 				index				Successfully Logged Out				202.83.19.104				Success				itwine				
2014-12-17T12:55:54+05:30 NOTICE (5): 				index				Successfully Logged in				202.83.19.104				Success				itwine				
2014-12-17T13:00:24+05:30 NOTICE (5): 				takafullogin				Successfully Logged in				202.83.19.104				Success				askiran123@gmail.com				
2014-12-17T13:01:03+05:30 NOTICE (5): 				batchlogin				Successfully Logged in				202.83.19.104				Success				
2014-12-17T13:04:25+05:30 NOTICE (5): 				batchlogin				Successfully Logged in				192.168.1.17				Success				
2014-12-17T13:05:31+05:30 NOTICE (5): 				batchlogin				Successfully Logged Out				192.168.1.17				Success				
2014-12-17T13:06:08+05:30 NOTICE (5): 				takafullogin				Successfully Logged in				192.168.1.17				Success				askiran123@gmail.com				
2014-12-17T13:06:23+05:30 NOTICE (5): 				index				Successfully Logged Out				202.83.19.104				Success				itwine				
2014-12-17T13:07:23+05:30 NOTICE (5): 				index				Successfully Logged in				202.83.19.104				Success				itwine				
2014-12-17T13:08:13+05:30 NOTICE (5): 				takafullogin				Successfully Logged in				202.83.19.104				Success				askiran123@gmail.com				
2014-12-17T13:09:52+05:30 NOTICE (5): 				takafullogin				Successfully Logged in				192.168.1.17				Success				askiran123@gmail.com				
2014-12-17T13:11:23+05:30 NOTICE (5): 				takafullogin				Successfully Logged Out				192.168.1.17				Success				
2014-12-17T13:12:34+05:30 NOTICE (5): 				index				Successfully Logged in				202.83.19.104				Success				askiran123@gmail.com				
2014-12-17T14:07:40+05:30 NOTICE (5): 				takafullogin				Successfully Logged in				192.168.1.17				Success				askiran123@gmail.com				
2014-12-17T14:15:23+05:30 NOTICE (5): 				takafullogin				Successfully Logged Out				202.83.19.104				Success				
2014-12-17T14:19:00+05:30 NOTICE (5): 				takafullogin				Successfully Logged Out				202.83.19.104				Success				
2014-12-17T14:19:06+05:30 NOTICE (5): 				takafullogin				Successfully Logged Out				202.83.19.104				Success				
2014-12-17T14:19:23+05:30 NOTICE (5): 				index				Successfully Logged in				202.83.19.104				Success				askiran123@gmail.com				
2014-12-17T14:22:16+05:30 NOTICE (5): 				takafullogin				Successfully Logged in				202.83.19.104				Success				askiran123@gmail.com				
2014-12-17T14:26:34+05:30 NOTICE (5): 				index				Successfully Logged in				202.83.19.104				Success				askiran123@gmail.com				
2014-12-17T14:29:48+05:30 NOTICE (5): 				index				Successfully Logged in				202.83.19.104				Success				askiran123@gmail.com				
2014-12-17T14:30:25+05:30 NOTICE (5): 				takafullogin				Successfully Logged Out				202.83.19.104				Success				
2014-12-17T14:32:41+05:30 NOTICE (5): 				index				Successfully Logged in				202.83.19.104				Success				askiran123@gmail.com				
2014-12-17T14:32:46+05:30 NOTICE (5): 				takafullogin				Successfully Logged Out				202.83.19.104				Success				
2014-12-17T14:32:46+05:30 NOTICE (5): 				batchlogin				Successfully Logged in				202.83.19.104				Success				
2014-12-17T14:33:35+05:30 NOTICE (5): 				takafullogin				Successfully Logged in				202.83.19.104				Success				askiran123@gmail.com				
2014-12-17T14:33:39+05:30 NOTICE (5): 				takafullogin				Successfully Logged Out				202.83.19.104				Success				
2014-12-17T14:34:54+05:30 NOTICE (5): 				index				Successfully Logged in				202.83.19.104				Success				itwine				
2014-12-17T14:34:57+05:30 NOTICE (5): 				index				Successfully Logged Out				202.83.19.104				Success				itwine				
2014-12-17T14:36:37+05:30 NOTICE (5): 				batchlogin				Successfully Logged in				202.83.19.104				Success				
2014-12-17T14:38:27+05:30 NOTICE (5): 				batchlogin				Successfully Logged Out				202.83.19.104				Success				
2014-12-17T14:40:37+05:30 NOTICE (5): 				batchlogin				Successfully Logged in				202.83.19.104				Success				
2014-12-17T14:42:49+05:30 NOTICE (5): 				batchlogin				Successfully Logged Out				202.83.19.104				Success				
2014-12-17T14:49:39+05:30 NOTICE (5): 				batchlogin				Successfully Logged in				202.83.19.104				Success				
2014-12-17T14:49:52+05:30 NOTICE (5): 				batchlogin				Successfully Logged Out				202.83.19.104				Success				
2014-12-17T14:50:10+05:30 NOTICE (5): 				batchlogin				Successfully Logged in				202.83.19.104				Success				
2014-12-17T14:51:13+05:30 NOTICE (5): 				batchlogin				Successfully Logged Out				202.83.19.104				Success				
2014-12-17T15:00:31+05:30 NOTICE (5): 				takafullogin				Successfully Logged Out				192.168.1.17				Success				
2014-12-17T15:03:10+05:30 NOTICE (5): 				batchlogin				Successfully Logged in				192.168.1.17				Success				
2014-12-17T15:09:56+05:30 NOTICE (5): 				batchlogin				Successfully Logged in				202.83.19.104				Success				
2014-12-17T15:10:16+05:30 NOTICE (5): 				batchlogin				Successfully Logged Out				202.83.19.104				Success				
2014-12-17T15:14:14+05:30 NOTICE (5): 				batchlogin				Successfully Logged in				202.83.19.104				Success				
2014-12-17T15:16:26+05:30 NOTICE (5): 				batchlogin				Successfully Logged Out				202.83.19.104				Success				
2014-12-17T15:16:36+05:30 NOTICE (5): 				batchlogin				Successfully Logged in				202.83.19.104				Success				
2014-12-17T15:17:17+05:30 NOTICE (5): 				batchlogin				Successfully Logged Out				202.83.19.104				Success				
2014-12-17T15:17:34+05:30 NOTICE (5): 				batchlogin				Successfully Logged in				202.83.19.104				Success				
2014-12-17T15:17:47+05:30 NOTICE (5): 				batchlogin				Successfully Logged Out				202.83.19.104				Success				
2014-12-17T15:18:06+05:30 NOTICE (5): 				batchlogin				Successfully Logged in				202.83.19.104				Success				
2014-12-17T15:18:15+05:30 NOTICE (5): 				batchlogin				Successfully Logged Out				202.83.19.104				Success				
2014-12-17T15:18:30+05:30 NOTICE (5): 				batchlogin				Successfully Logged in				202.83.19.104				Success				
2014-12-17T15:19:45+05:30 NOTICE (5): 				takafullogin				Successfully Logged in				202.83.19.104				Success				askiran123@gmail.com				
2014-12-17T15:20:30+05:30 NOTICE (5): 				takafullogin				Successfully Logged in				202.83.19.104				Success				askiran123@gmail.com				
2014-12-17T15:21:19+05:30 NOTICE (5): 				takafullogin				Successfully Logged in				202.83.19.104				Success				askiran123@gmail.com				
2014-12-17T15:23:04+05:30 NOTICE (5): 				takafullogin				Successfully Logged in				202.83.19.104				Success				askiran123@gmail.com				
2014-12-17T15:25:47+05:30 NOTICE (5): 				takafullogin				Successfully Logged Out				202.83.19.104				Success				
2014-12-17T15:26:21+05:30 NOTICE (5): 				batchlogin				Successfully Logged in				202.83.19.104				Success				
2014-12-17T15:26:34+05:30 NOTICE (5): 				batchlogin				Successfully Logged Out				202.83.19.104				Success				
2014-12-17T15:26:49+05:30 NOTICE (5): 				batchlogin				Successfully Logged in				202.83.19.104				Success				
2014-12-17T15:28:51+05:30 NOTICE (5): 				batchlogin				Successfully Logged in				202.83.19.104				Success				
2014-12-17T15:33:31+05:30 NOTICE (5): 				batchlogin				Successfully Logged Out				202.83.19.104				Success				
2014-12-17T15:33:42+05:30 NOTICE (5): 				batchlogin				Successfully Logged in				202.83.19.104				Success				
2014-12-17T15:33:45+05:30 NOTICE (5): 				batchlogin				Successfully Logged Out				202.83.19.104				Success				
2014-12-17T15:34:12+05:30 NOTICE (5): 				batchlogin				Successfully Logged in				202.83.19.104				Success				
2014-12-17T15:58:09+05:30 NOTICE (5): 				batchlogin				Successfully Logged in				202.83.19.104				Success				
2014-12-17T16:18:53+05:30 NOTICE (5): 				batchlogin				Successfully Logged Out				202.83.19.104				Success				
2014-12-17T16:19:05+05:30 NOTICE (5): 				batchlogin				Successfully Logged in				202.83.19.104				Success				
2014-12-17T16:27:03+05:30 NOTICE (5): 				batchlogin				Successfully Logged in				202.83.19.104				Success				
2014-12-17T16:28:24+05:30 NOTICE (5): 				takafullogin				Successfully Logged in				202.83.19.104				Success				askiran123@gmail.com				
2014-12-17T16:29:18+05:30 NOTICE (5): 				takafullogin				Successfully Logged in				202.83.19.104				Success				askiran123@gmail.com				
2014-12-17T16:30:15+05:30 NOTICE (5): 				takafullogin				Successfully Logged in				202.83.19.104				Success				askiran123@gmail.com				
2014-12-17T16:32:49+05:30 NOTICE (5): 				takafullogin				Successfully Logged in				202.83.19.104				Success				askiran123@gmail.com				
